- PT
2000
2500
3000
3500
4000
4500
5000
5500
6000
7000
8000
9000
10000
15000
20000
25000
- ETA
1.5
1.7
2.0
2.3
2.45
2.6
2.7
2.8
2.95
3.1
3.25
3.4
3.5
3.65
3.8
3.9
4.0
4.25
4.4
4.5
4.6
4.7
- NSPDHits
0.1
150
300
450
600
1000
- NTracks
0.1
150
200
275
800
- NPVs
0.1
2
3
4
8
